<?xml version="1.0" encoding="utf-8"?>
<!-- Generator: Adobe Illustrator 16.0.0, SVG Export Plug-In . SVG Version: 6.00 Build 0)  -->
<!DOCTYPE svg PUBLIC "-//W3C//DTD SVG 1.1//EN" "http://www.w3.org/Graphics/SVG/1.1/DTD/svg11.dtd">
<svg version="1.1" id="Layer_1" xmlns="http://www.w3.org/2000/svg" xmlns:xlink="http://www.w3.org/1999/xlink" x="0px" y="0px"
	 width="100px" height="33px" viewBox="0 0 100 33" enable-background="new 0 0 100 33" xml:space="preserve">
<g>
	<path fill="#FFFFFF" d="M19.313,24.257h-3.802l-0.399-1.76c-0.916,1.385-2.276,2.041-3.943,2.041c-3.286,0-5.233-2.135-5.233-6.501
		c0-4.317,1.948-6.453,5.233-6.453c1.385,0,2.582,0.47,3.473,1.432V7.243h4.67V24.257z M10.606,17.451v1.244
		c0,1.455,0.563,2.394,2.018,2.394s2.065-1.174,2.065-2.628v-0.775c0-1.455-0.61-2.652-2.065-2.652S10.606,15.996,10.606,17.451z"/>
	<path fill="#FFFFFF" d="M35.549,18.062v0.798h-9.293c0,1.713,0.704,2.698,2.487,2.698c1.667,0,2.276-0.798,2.276-1.807h4.529
		c0,2.957-2.253,4.787-6.711,4.787c-4.459,0-7.252-2.018-7.252-6.477c0-4.342,2.746-6.478,6.97-6.478
		C33.015,11.584,35.549,13.603,35.549,18.062z M26.279,16.653h4.553c0-1.291-0.774-2.089-2.089-2.089
		C27.171,14.564,26.443,15.362,26.279,16.653z"/>
	<path fill="#FFFFFF" d="M45.379,7.383v2.746h-1.08c-1.033,0-1.314,0.375-1.314,1.244v0.493h2.394v3.168h-2.394v9.223h-4.67v-9.223
		h-1.736v-3.168h1.736V11.35c0-3.379,1.854-4.389,4.529-4.389C43.525,6.961,44.745,7.148,45.379,7.383z"/>
	<path fill="#FFFFFF" d="M59.223,15.621v4.834c0,0.517,0.234,0.915,0.752,0.915h0.844v2.699c0,0-0.867,0.469-2.441,0.469
		c-1.877,0-3.027-0.609-3.449-1.549c-1.033,0.821-2.416,1.549-4.576,1.549c-2.582,0-4.365-0.892-4.365-3.473
		c0-3.708,3.145-4.412,8.566-4.412v-0.61c0-1.009-0.799-1.479-1.807-1.479c-0.822,0-1.784,0.258-1.784,1.08v0.094h-4.6
		c-0.023-0.117-0.023-0.211-0.023-0.329c0-2.276,2.229-3.825,6.478-3.825C56.219,11.584,59.223,12.57,59.223,15.621z M54.553,18.859
		c-2.77,0-3.896,0.68-3.896,1.596c0,0.962,0.798,1.173,1.595,1.173c1.197,0,2.301-0.703,2.301-1.713V18.859z"/>
	<path fill="#FFFFFF" d="M75.154,24.257h-3.826l-0.305-1.877c-0.963,1.337-2.652,2.158-4.412,2.158
		c-2.934,0-4.318-1.713-4.318-4.646v-8.026h4.67v7.462c0,1.033,0.541,1.761,1.572,1.761c1.174,0,1.949-0.892,1.949-1.948v-7.275
		h4.67V24.257z"/>
	<path fill="#FFFFFF" d="M82.824,24.257h-4.67V7.243h4.67V24.257z"/>
	<path fill="#FFFFFF" d="M91.436,11.866h2.629v3.168h-2.629v4.717c0,1.056,0.258,1.619,1.314,1.619h1.314v2.746
		c-0.775,0.258-2.184,0.422-3.004,0.422c-2.535,0-4.295-0.774-4.295-3.309v-6.196h-1.736v-3.168h1.924l1.01-3.755h3.473V11.866z"/>
</g>
</svg>
